…
Now, you can use the `summarize()` function to get summary data for each
subgroup

``` r
summaries <- summarise(grouped, mean.length = mean(length))
```

    ## `summarise()` has grouped output by 'type'. You can override using the
    ## `.groups` argument.

``` r
summaries
```

    ## # A tibble: 81 × 3
    ## # Groups:   type [6]
    ##    type    make          mean.length
    ##    <chr>   <chr>               <dbl>
    ##  1 Compact Audi                  180
    ##  2 Compact Chevrolet             183
    ##  3 Compact Chrysler              183
    ##  4 Compact Dodge                 181
    ##  5 Compact Ford                  177
    ##  6 Compact Honda                 185
    ##  7 Compact Mazda                 184
    ##  8 Compact Mercedes-Benz         175
    ##  9 Compact Nissan                181
    ## 10 Compact Oldsmobile            188
    ## # … with 71 more rows

You can ask for more than one summary statistic.

``` r
summaries <- summarise(grouped, mean.length = mean(length), max.length = max(length), std_rpm = sd(rpm))
```

    ## `summarise()` has grouped output by 'type'. You can override using the
    ## `.groups` argument.

``` r
summaries
```

    ## # A tibble: 81 × 5
    ## # Groups:   type [6]
    ##    type    make          mean.length max.length std_rpm
    ##    <chr>   <chr>               <dbl>      <dbl>   <dbl>
    ##  1 Compact Audi                  180        180      NA
    ##  2 Compact Chevrolet             183        184       0
    ##  3 Compact Chrysler              183        183      NA
    ##  4 Compact Dodge                 181        181      NA
    ##  5 Compact Ford                  177        177      NA
    ##  6 Compact Honda                 185        185      NA
    ##  7 Compact Mazda                 184        184      NA
    ##  8 Compact Mercedes-Benz         175        175      NA
    ##  9 Compact Nissan                181        181      NA
    ## 10 Compact Oldsmobile            188        188      NA
    ## # … with 71 more rows
…
### Solutions B

``` r
grouped <- group_by(gap_data, continent, year)
summaries <- summarise(grouped, mean.lifeExp = mean(lifeExp))
```

    ## `summarise()` has grouped output by 'continent'. You can override using the
    ## `.groups` argument.

``` r
summaries
```

    ## # A tibble: 60 × 3
    ## # Groups:   continent [5]
    ##    continent  year mean.lifeExp
    ##    <fct>     <int>        <dbl>
    ##  1 Africa     1952         39.1
    ##  2 Africa     1957         41.3
    ##  3 Africa     1962         43.3
    ##  4 Africa     1967         45.3
    ##  5 Africa     1972         47.5
    ##  6 Africa     1977         49.6
    ##  7 Africa     1982         51.6
    ##  8 Africa     1987         53.3
    ##  9 Africa     1992         53.6
    ## 10 Africa     1997         53.6
    ## # … with 50 more rows
…
