…
``` r
my_variable <- data['Terminal Degree']
```

## Creating new variables

Often, you will want to create new variables based on existing ones to
make subsequent processing easier.

``` r
data['very_simple'] <- 1
data['very_simple']
```

    ## # A tibble: 1,142 × 1
    ##    very_simple
    ##          <dbl>
    ##  1           1
    ##  2           1
    ##  3           1
    ##  4           1
    ##  5           1
    ##  6           1
    ##  7           1
    ##  8           1
    ##  9           1
    ## 10           1
    ## # ℹ 1,132 more rows

However, we can do more interesting things.

``` r
data['has_phd'] <- data['Terminal Degree'] == 'PhD'
data['has_phd']
```

    ## # A tibble: 1,142 × 1
    ##    has_phd
    ##    <lgl>  
    ##  1 TRUE   
    ##  2 TRUE   
    ##  3 TRUE   
    ##  4 TRUE   
    ##  5 FALSE  
    ##  6 FALSE  
    ##  7 FALSE  
    ##  8 FALSE  
    ##  9 FALSE  
    ## 10 FALSE  
    ## # ℹ 1,132 more rows
…
### Mathematical Operations on Existing Columns

Let’s create a new column giving the surface area of each column.

``` r
data <- mutate(data, area = pi * (Diameter/2)^2)
data
```

    ## # A tibble: 250 × 6
    ##       ID Store     CrustDescription Topping       Diameter  area
    ##    <dbl> <chr>     <chr>            <chr>            <dbl> <dbl>
    ##  1     1 Dominos   ThinNCrispy      Supreme           29.4  679.
    ##  2     2 Dominos   ThinNCrispy      BBQMeatlovers     29.6  690.
    ##  3     3 Dominos   DeepPan          Hawaiian          27.1  575.
    ##  4     4 Dominos   ThinNCrispy      Supreme           27.4  592.
    ##  5     5 Dominos   ClassicCrust     Hawaiian          26.6  555.
    ##  6     6 Dominos   DeepPan          BBQMeatlovers     27.2  579.
    ##  7     7 EagleBoys MidCrust         SuperSupremo      29.2  667.
    ##  8     8 EagleBoys DeepPan          Hawaiian          28.8  651.
    ##  9     9 EagleBoys ThinCrust        BBQMeatlovers     30.0  709.
    ## 10    10 EagleBoys DeepPan          BBQMeatlovers     29.4  678.
    ## # ℹ 240 more rows

For fun: `transmute` only keeps the new variable.

``` r
data <- transmute(data, area = pi * (Diameter/2)^2)
data
```

    ## # A tibble: 250 × 1
    ##     area
    ##    <dbl>
    ##  1  679.
    ##  2  690.
    ##  3  575.
    ##  4  592.
    ##  5  555.
    ##  6  579.
    ##  7  667.
    ##  8  651.
    ##  9  709.
    ## 10  678.
    ## # ℹ 240 more rows
…
