…
Let’s create a new column giving the surface area of each column.

``` r
data <- mutate(data, area = pi * (Diameter/2)^2)
data
```

    ## # A tibble: 250 × 6
    ##       ID Store     CrustDescription Topping       Diameter  area
    ##    <dbl> <chr>     <chr>            <chr>            <dbl> <dbl>
    ##  1     1 Dominos   ThinNCrispy      Supreme           29.4  679.
    ##  2     2 Dominos   ThinNCrispy      BBQMeatlovers     29.6  690.
    ##  3     3 Dominos   DeepPan          Hawaiian          27.1  575.
    ##  4     4 Dominos   ThinNCrispy      Supreme           27.4  592.
    ##  5     5 Dominos   ClassicCrust     Hawaiian          26.6  555.
    ##  6     6 Dominos   DeepPan          BBQMeatlovers     27.2  579.
    ##  7     7 EagleBoys MidCrust         SuperSupremo      29.2  667.
    ##  8     8 EagleBoys DeepPan          Hawaiian          28.8  651.
    ##  9     9 EagleBoys ThinCrust        BBQMeatlovers     30.0  709.
    ## 10    10 EagleBoys DeepPan          BBQMeatlovers     29.4  678.
    ## # … with 240 more rows

For fun: `transmute` only keeps the new variable.

``` r
data <- transmute(data, area = pi * (Diameter/2)^2)
data
```

    ## # A tibble: 250 × 1
    ##     area
    ##    <dbl>
    ##  1  679.
    ##  2  690.
    ##  3  575.
    ##  4  592.
    ##  5  555.
    ##  6  579.
    ##  7  667.
    ##  8  651.
    ##  9  709.
    ## 10  678.
    ## # … with 240 more rows
…
